…
``` r
## Generating table of statistical values
library(broom)

broom::tidy(Final_Project_mod3) 
```

```
## # A tibble: 29 × 5
##    term                        estimate std.error statistic p.value
##    <chr>                          <dbl>     <dbl>     <dbl>   <dbl>
##  1 (Intercept)                -7108819.  3914023.    -1.82   0.167 
##  2 Country.NameBrazil           -17159.    27172.    -0.631  0.573 
##  3 Country.NameCanada            90547.    78641.     1.15   0.333 
##  4 Country.NameChina            -40976.    26601.    -1.54   0.221 
##  5 Country.NameFrance           -17902.    30459.    -0.588  0.598 
##  6 Country.NameJapan           -126767.    50589.    -2.51   0.0873
##  7 Country.NameMexico          -125466.    51739.    -2.42   0.0938
##  8 Country.NameUnited Kingdom  -150611.    65414.    -2.30   0.105 
##  9 Country.NameUnited States   -130952.    58177.    -2.25   0.110 
## 10 Year                           3636.     1988.     1.83   0.165 
## # ℹ 19 more rows
```
…
